{"messages":[{"id":61,"status":0,"qusetion":"为什么我这么帅？","answer":null,"phone":"13333333333","createtime":1477843200000},{"id":17,"status":0,"qusetion":"fsdf","answer":null,"phone":"afadfd","createtime":1477920741000},{"id":16,"status":1,"qusetion":"请问我的心被人伤害了能要求赔偿吗？","answer":"你好，很高兴回答你的问题，鉴于你的情况比较复杂，我们暂时无法处理，谢谢。","phone":"13188888131","createtime":1477921084000},{"id":13,"status":1,"qusetion":"请问我的心被人伤害了能要求赔偿吗？","answer":"你好，很高兴回答你的问题，鉴于你的情况比较复杂，我们暂时无法处理，谢谢。","phone":"13188888131","createtime":1477921084000},{"id":12,"status":1,"qusetion":"请问我的心被人伤害了能要求赔偿吗？","answer":"你好，很高兴回答你的问题，鉴于你的情况比较复杂，我们暂时无法处理，谢谢。","phone":"13188888131","createtime":1477921084000},{"id":11,"status":1,"qusetion":"请问我的心被人伤害了能要求赔偿吗？","answer":"你好，很高兴回答你的问题，鉴于你的情况比较复杂，我们暂时无法处理，谢谢。","phone":"13188888131","createtime":1477921084000},{"id":10,"status":1,"qusetion":"请问我的心被人伤害了能要求赔偿吗？","answer":"你好，很高兴回答你的问题，鉴于你的情况比较复杂，我们暂时无法处理，谢谢。","phone":"13188888131","createtime":1477921084000},{"id":9,"status":1,"qusetion":"请问我的心被人伤害了能要求赔偿吗？","answer":"你好，很高兴回答你的问题，鉴于你的情况比较复杂，我们暂时无法处理，谢谢。","phone":"13188888131","createtime":1477921084000},{"id":8,"status":1,"qusetion":"请问我的心被人伤害了能要求赔偿吗？","answer":"你好，很高兴回答你的问题，鉴于你的情况比较复杂，我们暂时无法处理，谢谢。","phone":"13188888131","createtime":1477921084000},{"id":7,"status":1,"qusetion":"请问我的心被人伤害了能要求赔偿吗？","answer":"你好，很高兴回答你的问题，鉴于你的情况比较复杂，我们暂时无法处理，谢谢。","phone":"13188888131","createtime":1477921084000}],"page":1,"pages":3,"total":16}